HC2-025650,US
HC2-006488,EU 
HC2-014886,EU
HC2-017277,EU
HC2-036918,ANZ
HC2-019363,EU
HC2-000937,ANZ
HC2-000945,ANZ
HC2-000978,ANZ
HC2-001018,ANZ
HC2-001032,ANZ
HC2-001229,ANZ
HC2-005460,US
HC2-007123,ANZ
HC2-007152,ANZ
HC2-007331,ANZ
HC2-007335,ANZ
HC2-007578,ANZ
HC2-007727,RU
HC2-007729,RU
HC2-014294,ANZ
HC2-015149,RU
HC2-015150,RU
HC2-015164,RU
HC2-015167,RU
HC2-015451,ANZ
HC2-015868,ANZ
HC2-016606,US
HC2-016610,US
HC2-016615,US
HC2-016694,US
HC2-017077,US
HC2-017079,US
HC2-017082,US
HC2-017247,ANZ
HC2-017253,ANZ
HC2-017710,US
HC2-018806,ANZ
HC2-018822,ANZ
HC2-019772,US
HC2-019778,US
HC2-019835,ANZ
HC2-019836,ANZ
HC2-019877,ANZ
HC2-019940,RU
HC2-021129,ANZ
HC2-021156,ANZ
HC2-022990,ANZ
HC2-022992,ANZ
HC2-022997,ANZ
HC2-023030,ANZ
HC2-023032,ANZ
HC2-023313,ANZ
HC2-023322,ANZ
HC2-023323,ANZ
HC2-023348,ANZ
HC2-023889,US
HC2-023891,US
HC2-023930,US
HC2-023932,US
HC2-023943,US
HC2-025622,US
HC2-025662,US
HC2-026060,ANZ
HC2-026734,ANZ
HC2-026739,ANZ
HC2-026762,ANZ
HC2-026770,ANZ
HC2-026786,ANZ
HC2-027648,IN
HC2-027698,IN
HC2-027726,US
HC2-027733,US
HC2-027746,US
HC2-027759,ANZ
HC2-027775,ANZ
HC2-029784,ANZ
HC2-031574,RU
HC2-031584,US
HC2-031589,US
HC2-031666,ANZ
HC2-032326,US
HC2-032341,US
HC2-032346,US
HC2-032349,US
HC2-032350,US
HC2-032353,US
HC2-033504,ANZ
HC2-033518,ANZ
HC2-033543,ANZ
HC2-033712,US
HC2-033728,US
HC2-034041,ANZ
HC2-034055,ANZ
HC2-034074,ANZ
HC2-034075,ANZ
HC2-034838,US
HC2-034867,US
HC2-034876,US
HC2-035086,US
HC2-035444,US
HC2-035745,RU
HC2-035746,RU
HC2-035782,RU
HC2-036330,ANZ
HC2-036334,ANZ
HC2-036335,ANZ
HC2-036343,ANZ
HC2-036348,ANZ
HC2-036367,ANZ
HC2-037103,US
HC2-037109,US
HC2-037121,ANZ
HC2-037122,ANZ
HC2-037132,ANZ
HC2-037140,ANZ
HC2-038018,ANZ
HC2-038032,ANZ
HC2-038045,ANZ
HC2-038049,ANZ
HC2-038233,US
HC2-038690,ANZ
HC2-038703,ANZ
HC2-038709,ANZ
HC2-038717,ANZ
HC2-038782,RU
HC2-038783,RU
HC2-038798,RU
HC2-039603,US
HC2-039621,US
HC2-040181,ANZ
HC2-040718,US
HC2-040755,US
HC2-040781,US
HC2-040782,US
HC2-041117,IN
HC2-041576,ANZ
HC2-041608,ANZ
HC2-041977,ANZ
HC2-041978,ANZ
HC2-042006,ANZ
HC2-042092,ANZ
HC2-042103,ANZ
HC2-042150,US
HC2-042152,US
HC2-042154,US
HC2-042732,ANZ
HC2-042734,ANZ
HC2-043419,ANZ
HC2-043447,ANZ
HC2-043464,ANZ
HC2-043689,IN
HC2-044022,ANZ
HC2-044023,ANZ
HC2-044028,ANZ
HC2-044036,ANZ
HC2-044603,ANZ
HC2-044656,ANZ
HC2-045664,RU
HC2-045733,US
HC2-045827,ANZ
HC2-045847,ANZ
HC2-046014,ANZ
HC2-046022,ANZ
HC2-046028,ANZ
HC2-046055,ANZ
HC2-046082,RU
HC2-046190,IN
HC2-046216,IN
HC2-047016,US
HC2-047037,US
HC2-047130,ANZ
HC2-047145,ANZ
HC2-047148,ANZ
HC2-047402,ANZ
HC2-047416,ANZ
HC2-047435,ANZ
HC2-048465,US
HC2-048621,ANZ
HC2-048834,ANZ
HC2-048839,ANZ
HC2-048842,ANZ
HC2-049813,ANZ
HC2-050145,ANZ
HC2-050559,ANZ
HC2-050579,ANZ
HC2-050728,ANZ
HC2-050738,ANZ
HC2-050751,ANZ
HC2-050866,ANZ
HC2-050871,ANZ
HC2-050902,ANZ
HC2-050908,ANZ
HC2-051699,ANZ
HC2-051733,ANZ
